{
  "project_info": {
    "project_number": "444592179904",
    "project_id": "authentication-95826",
    "storage_bucket": "authentication-95826.appspot.com"
  },
  "client": [
    {
      "client_info": {
        "mobilesdk_app_id": "1:444592179904:android:2235b418755d3958647b25",
        "android_client_info": {
          "package_name": "com.example.authorisation"
        }
      },
      "oauth_client": [
        {
          "client_id": "444592179904-26e492pimcp653mkad71j6uhaeoqd43v.apps.googleusercontent.com",
          "client_type": 3
        }
      ],
      "api_key": [
        {
          "current_key": "AIzaSyA6yY2YCtm5apq4AhZBLg5WIf7heOr3hkA"
        }
      ],
      "services": {
        "appinvite_service": {
          "other_platform_oauth_client": [
            {
              "client_id": "444592179904-26e492pimcp653mkad71j6uhaeoqd43v.apps.googleusercontent.com",
              "client_type": 3
            }
          ]
        }
      }
    }
  ],
  "configuration_version": "1"
}